
						{
							"files":
							[
						"05. te va a doler.mp3","Linkin Park - Crawling.mp3","13. Enjoy the Silence [Reinterpreted Mike Shinoda].mp3","13. Un Beso Y Una Flor.mp3","Linkin Park - One step closer.mp3","9-14. Time Is Running Out.mp3","Linkin Park - Numb.mp3","Linkin Park - Hybrid theory - papercut.mp3","3-7. Dance, Dance.mp3","Linkin Park - Somewhere i belong.mp3","Linkin Park - Faint.mp3","Linkin Park - In the end.mp3"

							]
						}
						