<?xml version="1.0" encoding="UTF-8" standalone="no"?>
<!-- Created with Inkscape (http://www.inkscape.org/) -->

<svg
   xmlns:dc="http://purl.org/dc/elements/1.1/"
   xmlns:cc="http://creativecommons.org/ns#"
   xmlns:rdf="http://www.w3.org/1999/02/22-rdf-syntax-ns#"
   xmlns:svg="http://www.w3.org/2000/svg"
   xmlns="http://www.w3.org/2000/svg"
   xmlns:sodipodi="http://sodipodi.sourceforge.net/DTD/sodipodi-0.dtd"
   xmlns:inkscape="http://www.inkscape.org/namespaces/inkscape"
   width="458.59375"
   height="458.59375"
   id="svg3208"
   version="1.1"
   inkscape:version="0.48.4 r9939"
   sodipodi:docname="icon-black.svg">
  <defs
     id="defs3210" />
  <sodipodi:namedview
     id="base"
     pagecolor="#ffffff"
     bordercolor="#666666"
     borderopacity="1.0"
     inkscape:pageopacity="0.0"
     inkscape:pageshadow="2"
     inkscape:zoom="1.2215568"
     inkscape:cx="269.77692"
     inkscape:cy="129.5346"
     inkscape:document-units="px"
     inkscape:current-layer="layer1"
     showgrid="false"
     fit-margin-top="0"
     fit-margin-left="0"
     fit-margin-right="0"
     fit-margin-bottom="0"
     inkscape:window-width="1871"
     inkscape:window-height="1056"
     inkscape:window-x="49"
     inkscape:window-y="24"
     inkscape:window-maximized="1" />
  <metadata
     id="metadata3213">
    <rdf:RDF>
      <cc:Work
         rdf:about="">
        <dc:format>image/svg+xml</dc:format>
        <dc:type
           rdf:resource="http://purl.org/dc/dcmitype/StillImage" />
        <dc:title />
      </cc:Work>
    </rdf:RDF>
  </metadata>
  <g
     inkscape:label="Capa 1"
     inkscape:groupmode="layer"
     id="layer1"
     transform="translate(61.140164,-491.85266)">
    <path
       style="fill:#000000;fill-opacity:1;stroke:none"
       d="M 9 14.90625 L 9 447.125 L 441.25 447.125 L 441.25 14.90625 L 9 14.90625 z M 38.875 41.40625 L 148.9375 41.40625 L 225.34375 246.75 L 302.15625 41.40625 L 412 41.40625 L 412 425.09375 L 330.25 425.09375 L 330.25 144.46875 L 252.96875 351.34375 L 198.15625 351.34375 L 120.875 144.46875 L 120.875 425.09375 L 38.875 425.09375 L 38.875 41.40625 z "
       id="rect3759"
       transform="translate(-61.140164,491.85266)" />
  </g>
</svg>
